%YAML 1.1
%TAG !u! tag:unity3d.com,2011:
--- !u!114 &11400000
MonoBehaviour:
  m_ObjectHideFlags: 0
  m_CorrespondingSourceObject: {fileID: 0}
  m_PrefabInstance: {fileID: 0}
  m_PrefabAsset: {fileID: 0}
  m_GameObject: {fileID: 0}
  m_Enabled: 1
  m_EditorHideFlags: 0
  m_Script: {fileID: 11500000, guid: 6ec8da731513d1346b2413812bba1224, type: 3}
  m_Name: BulletDB
  m_EditorClassIdentifier: 
  bullets:
  - bulletType: 0
    hitEffect: {fileID: 490358, guid: 37b2ccf5e6f6ef841aea86828cfde63f, type: 3}
    attackSound: {fileID: 8300000, guid: 51d2bef9fdd79ba4faff6850d5697620, type: 3}
    hitSound: {fileID: 8300000, guid: 5c0bc45853f19bd449457546162dd290, type: 3}
