%YAML 1.1
%TAG !u! tag:unity3d.com,2011:
--- !u!114 &11400000
MonoBehaviour:
  m_ObjectHideFlags: 0
  m_CorrespondingSourceObject: {fileID: 0}
  m_PrefabInstance: {fileID: 0}
  m_PrefabAsset: {fileID: 0}
  m_GameObject: {fileID: 0}
  m_Enabled: 1
  m_EditorHideFlags: 0
  m_Script: {fileID: 11500000, guid: f2d36cb4abbe6914c860209d962dd3c4, type: 3}
  m_Name: HuntModeDB
  m_EditorClassIdentifier: 
  difficultyLevels:
  - difficultyLevel: 0
    enemyCount: 3
    battleTime: 1000
    percentDamageReduction: 50
    percentBloodReduction: 15
  - difficultyLevel: 1
    enemyCount: 7
    battleTime: 10
    percentDamageReduction: 25
    percentBloodReduction: 10
  - difficultyLevel: 2
    enemyCount: 10
    battleTime: 15
    percentDamageReduction: 0
    percentBloodReduction: 0
