%YAML 1.1
%TAG !u! tag:unity3d.com,2011:
--- !u!1045 &1
EditorBuildSettings:
  m_ObjectHideFlags: 0
  serializedVersion: 2
  m_Scenes:
  - enabled: 1
    path: Assets/Scenes/Home.unity
    guid: eae699ecb42cf874983bfac77397b1a7
  - enabled: 1
    path: Assets/Scenes/GamePlay.unity
    guid: 2e384e70e18f48c4f90155f0f639c5eb
  m_configObjects: {}
